11,Batch 56,Vandana,91,9860131722,,,0
12,Batch 56,Geeta,91,9820030695,,,0
13,Batch 56,Chaitanya,91,9130335616,,,0
14,Batch 56,Dilshad,91,8500474910,,,0
15,Batch 56,Seema,61,431160903,,,0
16,Batch 56,M A,91,8808285488,,,0
17,Batch 56,Swati,91,9969302784,,,0
18,Batch 56,Bhavesh,91,8956009753,,,0
19,Batch 56,Shobhana,91,9819203558,,,0
20,Batch 56,Vaibhav,62,8118800202,,,0
