Batch 57,Akanksha,,91,9336620569
Batch 57,Neeta,,91,9892102312
Batch 57,Balaji,,91,9740082182
Batch 57,Munjal,,91,9821148757
Batch 57,Bharti,,91,7982341729
Batch 57,Indira anil,,91,9823926854
Batch 57,Sitaram,,91,8822682467
Batch 57,Mrunalini,,91,9819015248
Batch 57,Archana,,1,7162137024
Batch 57,Dilip,,91,9893563104
Batch 57,Ganesh Kumar,,91,9663611557
Batch 57,Rushil,,91,9819553321
Batch 57,Minal,,91,9769301080
Batch 57,Suresh,,91,7337502872
Batch 57,Jyotsna,,91,9819831406
Batch 57,Javed,,91,9820189866
Batch 57,Keshava,,91,9920845116
Batch 57,Roshan,,91,9909952759
Batch 57,Leela,,91,9388472487
Batch 57,TEJAL,,91,9619197174
Batch 57,CHAKRADHAR,,91,8121799575
Batch 57,Hira,,91,9372072490
Batch 57,Nirmallya,,91,9810937547
Batch 57,Srinivas Gudipati,,91,9491680970
Batch 57,NITIN,,91,9870665068
Batch 57,Madhavilatha,,91,9848640044
Batch 57,Er Saujanya,,91,9826267010
Batch 57,Archana,,91,9893886688
Batch 57,Sanjay,,91,9821053230
Batch 57,Vivek,,91,9820232925
Batch 57,Narmada,,91,9920997433
Batch 57,Priya,,91,9971183019
Batch 57,Nivedita,,91,9892802258
Batch 57,Jitendra narayan,,91,9892052275
Batch 57,Savithri,,91,9900099299
Batch 57,Adil,,91,9820320018
Batch 57,Karthikeyan S,,1,4087484086
Batch 57,Swarnalatha,,1,8939109211
Batch 57,Suman,,91,9820972676
Batch 57,Sashanka,,91,9324612870
Batch 57,Sireesha,,91,9323430544
Batch 57,Kamal,,91,9860763953
Batch 57,Srinivas,,91,9490193566
Batch 57,Devayani,,91,6361518610
Batch 57,Ajesh,,91,9451947877
Batch 57,Sushil,,91,9331101121
Batch 57,Sarita,,91,9007791121
Batch 57,Sneha,,91,9967671510
Batch 57,Pon,,91,7200010023
Batch 57,Ravi,,91,9818917111
Batch 57,Avinash,,91,9931817162
Batch 57,Avinash,,91,9987774315
Batch 57,Asha,,91,9463253661
Batch 57,Shilpa,,91,9177019498
Batch 57,Anurag,,91,9417493194
Batch 57,Vishal,,91,9900038024
Batch 57,Tharakesh,,91,9880173330
Batch 57,Ami,,1,9725229647
Batch 57,Vasantharajan,,91,8939130395
Batch 57,Usharani,,91,6383620156
Batch 57,Pradeep,,91,9820186121
Batch 57,Manisha,,91,9920229595
Batch 57,AMLENDU,,91,9504720383
Batch 57,Shoaib,,91,7903684228
Batch 57,Sudhir,,91,9810089604
Batch 57,Seema,,91,9650227356
Batch 57,Nandakumar,,91,9867019320
Batch 57,Shobha,,91,9987709648
Batch 57,RAJENDER,,91,8096617799
Batch 57,Satyanarayan,,1,4439397685
Batch 57,SHEFALI,,65,92776200
Batch 57,peri,,91,9438622850
Batch 57,Reshma,,65,84982174
Batch 57,Bhavsar,,91,9822073653
Batch 57,Gangadhar,,91,9820277317
Batch 57,Renuka,,91,9769768229
Batch 57,Santanu,,91,9707581511
Batch 57,Shanmuganathan,,91,8056233234
Batch 57,Namdeo,,91,9822362706
Batch 57,Jaya,,91,9822703734
Batch 57,ATUL,,91,9821361440
Batch 57,Nuzhath,,91,9908649457
Batch 57,Vinay Kumar,,91,9871829992
Batch 57,Neelima,,91,9971112240
Batch 57,Raghu,,91,9921050079
Batch 57,Saroja,,91,9960380079
Batch 57,Krishnangi,,91,9441955208
Batch 57,Vinod Kumar,,91,9553483562
Batch 57,Ritwik,,91,7397963068
Batch 57,Rakhi,,91,9470144844
Batch 57,Sukhpal,,91,9419135969
Batch 57,Nida,,91,9550803109
Batch 57,Trushal,,91,9892071967
Batch 57,Iffat,,966,544998717
Batch 57,SUNDARESAN,,91,9324608080
Batch 57,Tamanna,,971,565047904
Batch 57,Pushpalata,,91,9987099073
Batch 57,Shankar Prasad,,91,6264125658
Batch 57,Utpaljeet,,91,9954088877
Batch 57,Kamala,,91,9994747864
Batch 57,Baljeet Singh,,91,7999328339
Batch 57,Ganpat,,91,9958677088
Batch 57,Balaji,,973,39473441
Batch 57,Prasanna,,973,39950324
Batch 57,Manyam,,91,9849962376
Batch 57,Himanshu,,91,7720065550
Batch 57,Naseer,,91,8277617697
Batch 57,Saurabh,,91,9810160176
Batch 57,Pradeep,,91,9177324369
Batch 57,Vipin,,91,9873174319
Batch 57,Sureswari,,91,9448475175
Batch 57,Sanjay,,91,9341221804
Batch 57,Shilpa,,91,9008963963
Batch 57,Rajesh,,91,9686200457
Batch 57,Mark,,91,9820121636
Batch 57,DOMMALAPATY,,91,9425008543
Batch 57,Badiger,,91,9986233100
Batch 57,SANJAY,,91,9819763642
Batch 57,GURI,,91,9819463642
Batch 57,Madhav,,91,9890251050
Batch 57,S S,,91,7091686669
Batch 57,Jyoti,,91,9838329851
Batch 57,B.,,91,9821436796
Batch 57,Shivakumar,,971,506657065
Batch 57,Gurpur,,1,3104676043
Batch 57,Radhika,,91,9850087428
Batch 57,SAHANA,,91,9008889519
Batch 57,Prashant,,91,9963554787
Batch 57,Dr Ratan kumar,,91,8763422499
Batch 57,Kapildev,,91,7618757816
Batch 57,JAGJIT,,91,9892089766
Batch 57,Srirama,,91,8886585566
Batch 57,Venugopal,,91,9448792921
Batch 57,GOPINATH,,91,9789064614
Batch 57,Mohan,,91,8494928000
Batch 57,sundararajan,,1,4086217564
Batch 57,Saira,,66,846658505
Batch 57,Pratheep,,66,818276975
Batch 57,Tina,,66,817208250
Batch 57,Pooja,,1,4088568464
Batch 57,Shailendra Singh,,91,8884993036
Batch 57,Amit,,91,9423575700
Batch 57,Manjunatha,,91,9902913509
Batch 57,Shanthala,,91,9900770231
Batch 57,Anoop,,91,9980561913
Batch 57,Thaiyavel,,91,8610195697
Batch 57,Narsing,,91,8099822226
Batch 57,Kalyan,,91,9029017516
Batch 57,Umesh,,91,9702018696
Batch 57,SHIVENDU,,91,8084864240
Batch 57,kamal,,91,8390909770
Batch 57,Mangesh,,91,9821643609
Batch 57,HARISH KUMAR,,91,7204651387
Batch 57,HV,,91,9823567760
Batch 57,Rajan,,971,561379419
Batch 57,PRASHANT,,91,9810071983
Batch 57,Chandni,,91,9779031619
Batch 57,Mukund,,91,9741116849
Batch 57,Kumar,,91,9500047357
Batch 57,Sudesh,,91,9820297120
Batch 57,Tanaji,,91,9762438574
Batch 57,Bhooshan,,91,9422677456
Batch 57,Dipratnakar,,91,9029066906
Batch 57,ANIL,,91,9822684170
Batch 57,Kanchan,,91,9820010715
Batch 57,Vinay,,91,9833016377
Batch 57,Utkrant,,91,9619620507
Batch 57,Krupali,,91,8390765443
Batch 57,Prasant,,91,9325301550
Batch 57,MANAS,,91,8145557551
Batch 57,SIDDHARTH,,91,8097553667
Batch 57,RAVIKIRAN,,91,7869326450
Batch 57,Rashmi,,91,8827887967
Batch 57,SUNIL,,91,9822599823
Batch 57,Rupesh,,91,9819282939
Batch 57,sunil,,91,9869266682
Batch 57,Dipak,,91,8087029824
Batch 57,Sanjay,,91,9820025316
Batch 57,Prakash,,91,8879654579
Batch 57,Rengaraj,,91,9908788874
Batch 57,Sandesh,,91,9820514091
Batch 57,VISALATCHY,,91,7838993564
Batch 57,SIRAJUDDIN,,91,9049386264
Batch 57,Chandrashekhar,,91,9967547049
Batch 57,Vyjayanthi,,91,7021317816
Batch 57,SIRISHKUMAR,,91,9573627039
Batch 57,PARAMESH,,91,9845010610
Batch 57,kannan,,91,8308842872
Batch 57,Venkatesh,,965,66662618
Batch 57,Ramya,,965,66819860
Batch 57,Srinivas Rao,,91,9676714107
Batch 57,Dr. Ramesh,,91,9893497782
Batch 57,Maria Fatima,,91,8828747184
Batch 57,Seema,,91,9811453728
Batch 57,Bharati,,91,9373308347
Batch 57,Rama,,1,7323310744
Batch 57,Giri,,1,7324292747
Batch 57,Siva Subramanian,,91,8097172346
Batch 57,Sangeeta,,91,9822597306
Batch 57,MANJIRI,,91,9881477164
Batch 57,Pravin,,91,9422940615
Batch 57,Peter,,91,8668844514
Batch 57,Samson,,91,9325782238
Batch 57,B V N,,91,9986386228
Batch 57,Kalpana,,91,7338866839
Batch 57,Mayur,,91,9821904024
Batch 57,Mamta,,91,9830204051
Batch 57,Dipesh,,1,5623876373
Batch 57,Krishnakumar Narayan,,91,9764027755
Batch 57,Rajeshwari,,91,9880396246
Batch 57,Goldy,,91,9001401444
Batch 57,Vijay,,91,9823704023
Batch 57,Riju,,91,8050099222
Batch 57,PRASAD,,91,7977026210
Batch 57,PAYAL,,91,9137173019
Batch 57,Indubala,,91,9711575598
Batch 57,Deepak,,91,7066531782
Batch 57,PURVA,,91,9426733508
Batch 57,Krishna,,91,8975851900
Batch 57,Vivek,,91,9820088182
Batch 57,BABU RAM,,91,9417601935
Batch 57,Arvind,,1,7328959432
Batch 57,Sandhya,,,9850072004
Batch 57,SUDEEP,,91,9867193645
Batch 57,Jayant,,91,9490168575
Batch 57,Gandhali,,91,7709151516
Batch 57,Shriditi,,91,7087070102
Batch 57,Minaxi,,91,9823559610
Batch 57,Tamanna,,61,470314871
Batch 57,Ashok,,91,9822199331
Batch 57,Mala,,91,9820809867
Batch 57,VAISHALI,,91,9552772836
Batch 57,Praveen,,91,9341212656
Batch 57,Pauravi,,91,9970826930
Batch 57,Nilesh,,91,9930068557
Batch 57,Sushma,,91,9896444777
Batch 57,Kiran,,91,9990476919
Batch 57,Aryan,,44,7402537139
Batch 57,Yousufuddin,,91,9441965500
Batch 57,Supriya,,91,9881150550
Batch 57,SUREKHA,,91,9663149387
Batch 57,Vedanti,,91,8446689597
Batch 57,Irwin,,91,8180028718
Batch 57,Lorraine,,91,7756821087
Batch 57,Deepak,,91,9002625169
Batch 57,Sangeeta,,91,9867873555
Batch 57,Shaila,,91,9390004190
Batch 57,Ashok,,91,9820105067
Batch 57,Swati,,91,9819030904
Batch 57,Saurabh,,91,8527455849
Batch 57,Bharat,,91,9900311496
Batch 57,Annamalai,,968,91462064
Batch 57,Sumita,,1,4162584132
Batch 57,Vinay,,91,9810098410
Batch 57,Harpreet Kaur,,91,9560128776
Batch 57,Rahul,,91,9971355959
Batch 57,Gopali,,91,9899080328
Batch 57,Anjali,,91,9930878123
Batch 57,Sushil,,91,9999555823
Batch 57,Lalit,,91,9822180888
Batch 57,Sanjay,,91,9220848510
Batch 57,Vikas,,91,9559178764
Batch 57,SURESH,,91,8433999581
Batch 57,Shobha,,91,8329807212
Batch 57,NIRUPAMA,,91,9841417972
Batch 57,Uttam,,91,9781704999
Batch 57,Zulfiqar Ali,,91,9845237312
Batch 57,Arvind,,91,7046066039
Batch 57,SHIVRAJ,,91,7999999442
Batch 57,Shailesh,,91,9820283321
Batch 57,Shreya,,91,9869749620
Batch 57,R C,,91,9969220197
Batch 57,Rashmi,,91,9845911325
Batch 57,Manju,,91,9900240797
Batch 57,Venkata Reddy,,91,9393121955
Batch 57,Atul,,91,9967855779
Batch 57,Rohit,,91,9799765201
Batch 57,Sujata,,91,9819534510
Batch 57,Mohd,,91,9319738660
Batch 57,Abhishek,,91,7007303199
Batch 57,Arvind,,91,9320009822
Batch 57,Ramesh,,91,9967384184
Batch 57,Pravin,,91,9028911211
Batch 57,Pravin,,91,9822577050
Batch 57,Preeti Pradeep,,91,9833540792
Batch 57,Ashok pal,,91,9829036956
Batch 57,Vedprakash,,91,9802053034
Batch 57,Ajay,,91,9312502117
Batch 57,PRASAD,,91,7298244881
Batch 57,Dr.Rafique,,91,7980561558
Batch 57,Samir,,91,9833191755
Batch 57,Vinod,,91,9377889283
Batch 57,MAHESH,,91,8435220399
Batch 57,Raginee,,91,9869685101
Batch 57,Ashish,,91,9910614871
Batch 57,Annie,,91,7980783078
Batch 57,Suhas,,91,9920088295
Batch 57,Rahul,,91,9970390511
Batch 57,Shekhar,,91,9869141250
Batch 57,Dharani,,91,9976559995
Batch 57,Priya,,91,9689807700
Batch 57,Prasanna,,91,9370222222
Batch 57,Sandeep,,91,9850908385
Batch 57,Harsha,,91,9850908384
Batch 57,Iyer,,91,9820549099
Batch 57,Avinash,,91,9650045305
Batch 57,Sunanda,,91,9969614434
Batch 57,ANIL,,91,8094018038
Batch 57,NEELAM,,91,7733882368
Batch 57,Farhana,,91,7044116215
Batch 57,Sanjeev,,91,9822278970
Batch 57,Mayank,,91,9315441053
Batch 57,Abasaheb,,91,9850665588
Batch 57,Diganta,,91,7670002150
Batch 57,Parag,,91,7888034604
Batch 57,Ashok,,91,9930737498
Batch 57,Chaman,,91,9756136201
Batch 57,Narendra,,91,8787492415
Batch 57,Amit,,91,9545454251
Batch 57,Shashi,,91,9015808927
Batch 57,Samyak,,91,9899570792
Batch 57,Sharda,,91,9654593953
Batch 57,Ashu,,91,8130147067
Batch 57,Vineet,,91,7389927550
Batch 57,Shalini,,91,9999146965
Batch 57,Divya,,91,9820535627
Batch 57,Rajagopalan,,91,7338213388
Batch 57,Gopinath,,91,9910094641
Batch 57,Ashok,,91,9002943421
Batch 57,Kiran,,91,9873453604
Batch 57,Mahendra,,91,9414167167
Batch 57,Harini,,91,9535145005
Batch 57,Madhumita,,91,8850005068
Batch 57,Vijaykumar,,91,9822990986
Batch 57,Ashish,,91,9811166811
Batch 57,Suwarna,,91,8275052504
Batch 57,Manoj Kumar,,91,9450004797
Batch 57,Alini,,91,9350972308
Batch 57,Makarand,,91,8010541977
Batch 57,Bhupendra,,91,9415334192
Batch 57,Manish,,91,9440280906
Batch 57,Disha,,91,9307049586
Batch 57,Sandeep Kumar,,91,9100073093
Batch 57,Rakhi,,91,9899484490
Batch 57,Bijit,,91,9401357963
Batch 57,ANIL,,91,9709703777
Batch 57,Sonal,,91,9820271303
Batch 57,Manohar,,91,9414110396
Batch 57,Yogini,,91,9035040158
Batch 57,Ramanan,,91,9900043269
Batch 57,Jyotsna,,91,9999193154
Batch 57,Bhanu,,91,9846128087
Batch 57,Raamakrushnan,,91,9380294343
Batch 57,Saikat,,91,9980699772
Batch 57,ABHAY,,91,9545551205
Batch 57,GAYATRI,,91,9545551208
Batch 57,Anita,,91,9474588813
Batch 57,Prashant,,91,9987037757
Batch 57,MAHESH,,91,9762206610
Batch 57,Padma,,91,9907585477
Batch 57,RAJENDRA,,91,8827649328
Batch 57,Bhushan,,91,9082102879
Batch 57,TAPAS RANJAN,,91,9861062244
Batch 57,Savita,,91,9561093861
Batch 57,Avadhesh,,91,8756591236
Batch 57,Krishna,,91,9433860364
Batch 57,Poonam,,91,9867631991
Batch 57,Machhindra,,91,9423333764
Batch 57,Umakanta,,91,9436971400
Batch 57,Rana,,91,9414155071
Batch 57,Jayachandra,,91,9242130525
Batch 57,Meena,,91,5942235031
Batch 57,Jayesh,,91,9820546420
Batch 57,Dr Manoj,,91,8249134599
Batch 57,Amit,,91,9136450498
Batch 57,Chandrabhal,,91,9555551146
Batch 57,Krishna,,91,9886212055
Batch 57,Prathibha,,91,9880470069
Batch 57,Balaji,,91,9850823333
Batch 57,Charu,,91,9415414871
Batch 57,Senthil Nathan,,91,7338794859
Batch 57,Charu,,91,8002617397
Batch 57,Atish,,91,9342214147
Batch 57,Vasanth,,91,9886755988
Batch 57,Poonam,,1,5714999158
Batch 57,Praneeta,,91,9890096930
Batch 57,Prajakta,,91,9657874959
Batch 57,Pradip,,91,8600032256
Batch 57,Vasudha,,91,9545553202
Batch 57,Yogesh,,91,9173096810
Batch 57,Vijay,,91,8369393230
Batch 57,AMIT,,91,9619671673
Batch 57,Dr Kalpana,,91,8080942250
Batch 57,Chetankumar,,91,9845140478
Batch 57,Piyush,,91,9717848718
Batch 57,Kishor,,91,8087967961
Batch 57,Rajeev,,91,9822026707
Batch 57,Deepak,,91,9686434404
Batch 57,Anurag,,91,9891488201
Batch 57,Pankaj,,49,15215039445
Batch 57,Seshadeva Kumar,,91,8777014091
Batch 57,Ravikumar,,91,9343121919
Batch 57,Sabesan,,91,9945691033
Batch 57,PADMANABH,,91,9890048797
Batch 57,RADHIKA,,91,9970577200
Batch 57,Atul,,91,9021915434
Batch 57,Shashi,,91,9636085850
Batch 57,Vadiraj,,91,9880733994
Batch 57,Sanjay,,91,7970000000
Batch 57,Vijay,,91,9766761344
Batch 57,Hiren,,91,9825869930
Batch 57,Minaxi,,91,9978909344
Batch 57,Paramjit,,91,9419143113
Batch 57,shailesh,,91,8329081571
Batch 57,Manjusha,,91,9422713618
Batch 57,Ashok,,91,9820742363
Batch 57,Aakanksha,,91,9820742250
Batch 57,MAHESH,,91,9028099225
Batch 57,Noor m,,91,9419018982
Batch 57,Sethulakshmi,,91,9789522759
Batch 57,Smita,,91,9819055991
Batch 57,Ninad,,91,9422108258
Batch 57,Ritu,,91,9586046464
Batch 57,Sushanta,,91,9819055992
Batch 57,Braj Bihari,,91,9162520054
Batch 57,NILESH,,91,9825111737
Batch 57,Damodharlal,,91,9440084605
Batch 57,Sandesh,,971,509687517
Batch 57,Amol,,91,9422918282
Batch 57,Nitin,,91,9822085622
Batch 57,Nishita,,1,7325337105
Batch 57,RITESH,,91,7722053487
Batch 57,Amita,,91,9920853223
Batch 57,Sanjeev,,91,9930552653
Batch 57,RAMCHAND,,1,7346646371
Batch 57,Pradip Kumar,,91,9830414947
Batch 57,Ritu,,971,553784549
Batch 57,Anand,,971,553784557
Batch 57,Soman,,91,8105612984
Batch 57,Irshad,,91,9739633004
Batch 57,V.,,91,9845055565
Batch 57,Vijayalakhmi,,91,9739097129
Batch 57,Priyanka,,91,7757045213
Batch 57,Akanksha,,91,9404309485
Batch 57,Dr Pramod,,91,9881912050
Batch 57,Dr Ritu,,91,9881912049
Batch 57,Eyob,,91,8208279893
Batch 57,Nivrutti,,91,9405845325
Batch 57,Deepti,,91,7709017300
Batch 57,Gayatri,,91,9545590208
Batch 57,Jacintha,,91,8087075057
Batch 57,Sandeep,,91,9970833352
Batch 57,kalyani,,91,7276818211
Batch 57,Sanjana,,91,7038338998
Batch 57,Pooja,,91,9768161921
Batch 57,Nitin Godbole,,91,9619914640
Batch 57,Bharati Banda Joshi,,91,9422010300
Batch 57,Ajit Inamdar,,91,8888809660
Batch 57,DIPTI BANDEKAR,,91,9833146944
Batch 57,Rachna Karnani,,91,9618333922
Batch 57,Ranjana Pathak,,91,8956666016
Batch 57,Ritu Lala,,91,9511249545
Batch 57,YASHKARAN SINGH LAULY,,91,9448147106
Batch 57,Vaishali Dhoot,,91,9423941048
Batch 57,SANTOSH,,91,8971525252
Batch 57,Pravin Joshi,,91,9819880141
Batch 57,Uma Nagaraj,,91,9422326556
Batch 57,Prachi Dinesh Helwade,,91,7030178181
Batch 57,Pooja Nandyalkar,,91,9552444851
Batch 57,Vijay Patil,,91,7507930511
Batch 57,Rahul Girme,,91,9422013009
Batch 57,Namrata Dekhane,,91,9689603340
Batch 57,Gauri Pande,,91,9284253437
Batch 57,Deepa Mekal,,91,9722533560
Batch 57,Padma Murugan,,91,9.71509E+11
Batch 57,Sunita Shende,,91,9986015539
Batch 57,Aarti Jain,,91,9811239650
Batch 57,Deepak manwadkar,,91,9763948305
Batch 57,Madhumita Kothe,,91,9420495950
Batch 57,Ketki Thakkar,,91,1.91848E+12
Batch 57,Smita shirwalkar,,91,9975135209
Batch 57,Prashant Mahurkar,,91,9822741714
Batch 57,Smita shirwalkar,,91,9975135209
Batch 57,Vaijayanti prakash Pawar,,91,9881055499
Batch 57,Girish Hiremath,,91,9972166377
Batch 57,Pranita Vivek Yatnalkar,,91,9822640930
Batch 57,Pankaj digambar Mandke,,91,9373777132
Batch 57,Mrs Manik Joshi,,91,8600141012
Batch 57,Sangeeta Gupta,,91,9723399941
Batch 57,Mahesh Dhebe,,91,7038043102
Batch 57,Milind Mungale,,91,8928465463
Batch 57,Vinod VYAS,,91,9711198663
Batch 57,Shweta Harihar Joshi,,91,9881134212
Batch 57,Archana p Upadhyaya,,91,9898428586
Batch 57,Shirish K. Belsare,,91,9822744213
Batch 57,Kulkarni Mahendra Balasaheb,,91,9850670999
Batch 57,Kulkarni Mahendra Balasaheb,,91,9850670999
Batch 57,Amitabh S Maindalkar,,91,8104046778
Batch 57,Swati sanjay Pujari,,91,9881235075
Batch 57,Preeti Thakkar,,91,9844092175
Batch 57,Sanjay Murlidhar Salunke,,91,9921677039
Batch 57,Dr Gopinath  ,,91,9527101317
Batch 57,Dr. Ramanand,,91,9342242212
Batch 57,Dr. Vaishali ,,91,9881159590
Batch 57,Veernarayan Kulkarni ,,91,9845588781
Batch 57,Dr. Dinesh ,,91,7666816913
Batch 57,Dr Santosh  ,,91,9763123231
Batch 57,Dr.Subodh ,,91,9822366371
Batch 57,Dr. Manisha ,,91,9898593570
Batch 57,TV GANESH,,91,9820543230
Batch 57,Dr Malhar,,91,9850839063
Batch 57,Ramchandra Khose,,91,8788118183
Batch 57,Aarti Jain,,91,9811239650
Batch 57,Amit Vishnoi,,91,9940036482
Batch 57,Deepak Kumar,,91,8750370044
Batch 57,Rinku Jain,,91,9868326454
Batch 57,Sangeeta Dhingra,,91,9873001525
Batch 57,Manjulata Jaiswal,,91,9158975578
Batch 57,Dr. Munjal Thakar,,91,9227926514
Batch 57,AshokSavalia,,91,9825023121
Batch 57,Rajeev,,91,9426487292
Batch 57,Neeta,,91,9921730258
Batch 57,Jayraman,,91,9890564192
Batch 57,Vasudha,,91,9822295524
Batch 57,Dr Pournima,,91,8308825934
Batch 57,Gandhali,,91,8380045515
Batch 57,Mamata,,91,7038088509
Batch 57,Sajal,,91,9766903308
Batch 57,Tanmayi,,91,7588809516
Batch 57,Shraddha,,91,7032814851
Batch 57,Urjita,,91,8390777279
Batch 57,Baby,,91,9021611671
Batch 57,Anagha,,91,9970181398
Batch 57,Rhytam,,91,7780842379
Batch 57,Chirantani,,91,8981826745
Batch 57,Sanchita,,91,9769636868
Batch 57,Niyati,,91,9712683839
Batch 57,Dr Smita,,91,9623550324
Batch 57,Dr Nikhil,,91,9890194525
Batch 57,Nivrutti,,91,9405845325
Batch 57,Neelam,,1,6475499538
