Batch 53,User,,91,2020202020
Batch 53,User,,91,2121212121
Batch 53,User,,91,2323232323
Batch 53,User,,91,2424242424
Batch 53,User,,91,2525252525
Batch 53,User,,91,2626262626
Batch 53,User,,91,2727272727
Batch 53,User,,91,2828282828
Batch 53,User,,91,2929292929
Batch 53,User,,91,3030303030
Batch 53,User,,91,3131313131
Batch 53,User,,91,3232323232
Batch 53,User,,91,3434343434
Batch 53,User,,91,3535353535
Batch 53,User,,91,3636363636
Batch 53,User,,91,3737373737
Batch 53,User,,91,3838383838
Batch 53,User,,91,3939393939
Batch 53,User,,91,4040404040
Batch 53,User,,91,4141414141
Batch 53,User,,91,4242424242
Batch 53,User,,91,4343434343
Batch 53,User,,91,4545454545
Batch 53,User,,91,4646464646
Batch 53,User,,91,4747474747
Batch 53,User,,91,4848484848
Batch 53,User,,91,4949494949
Batch 53,User,,91,5050505050
Batch 53,User,,91,5151515151
Batch 53,User,,91,5252525252
Batch 54,User,,91,2020202020
Batch 54,User,,91,2121212121
Batch 54,User,,91,2323232323
Batch 54,User,,91,2424242424
Batch 54,User,,91,2525252525
Batch 54,User,,91,2626262626
Batch 54,User,,91,2727272727
Batch 54,User,,91,2828282828
Batch 54,User,,91,2929292929
Batch 54,User,,91,3030303030
Batch 54,User,,91,3131313131
Batch 54,User,,91,3232323232
Batch 54,User,,91,3434343434
Batch 54,User,,91,3535353535
Batch 54,User,,91,3636363636
Batch 54,User,,91,3737373737
Batch 54,User,,91,3838383838
Batch 54,User,,91,3939393939
Batch 54,User,,91,4040404040
Batch 54,User,,91,4141414141
Batch 54,User,,91,4242424242
Batch 54,User,,91,4343434343
Batch 54,User,,91,4545454545
Batch 54,User,,91,4646464646
Batch 54,User,,91,4747474747
Batch 54,User,,91,4848484848
Batch 54,User,,91,4949494949
Batch 54,User,,91,5050505050
Batch 54,User,,91,5151515151
Batch 54,User,,91,5252525252
Batch 55,User,,91,2020202020
Batch 55,User,,91,2121212121
Batch 55,User,,91,2323232323
Batch 55,User,,91,2424242424
Batch 55,User,,91,2525252525
Batch 55,User,,91,2626262626
Batch 55,User,,91,2727272727
Batch 55,User,,91,2828282828
Batch 55,User,,91,2929292929
Batch 55,User,,91,3030303030
Batch 55,User,,91,3131313131
Batch 55,User,,91,3232323232
Batch 55,User,,91,3434343434
Batch 55,User,,91,3535353535
Batch 55,User,,91,3636363636
Batch 55,User,,91,3737373737
Batch 55,User,,91,3838383838
Batch 55,User,,91,3939393939
Batch 55,User,,91,4040404040
Batch 55,User,,91,4141414141
Batch 55,User,,91,4242424242
Batch 55,User,,91,4343434343
Batch 55,User,,91,4545454545
Batch 55,User,,91,4646464646
Batch 55,User,,91,4747474747
Batch 55,User,,91,4848484848
Batch 55,User,,91,4949494949
Batch 55,User,,91,5050505050
Batch 55,User,,91,5151515151
Batch 55,User,,91,5252525252
Batch 56,User,,91,2020202020
Batch 56,User,,91,2121212121
Batch 56,User,,91,2323232323
Batch 56,User,,91,2424242424
Batch 56,User,,91,2525252525
Batch 56,User,,91,2626262626
Batch 56,User,,91,2727272727
Batch 56,User,,91,2828282828
Batch 56,User,,91,2929292929
Batch 56,User,,91,3030303030
Batch 56,User,,91,3131313131
Batch 56,User,,91,3232323232
Batch 56,User,,91,3434343434
Batch 56,User,,91,3535353535
Batch 56,User,,91,3636363636
Batch 56,User,,91,3737373737
Batch 56,User,,91,3838383838
Batch 56,User,,91,3939393939
Batch 56,User,,91,4040404040
Batch 56,User,,91,4141414141
Batch 56,User,,91,4242424242
Batch 56,User,,91,4343434343
Batch 56,User,,91,4545454545
Batch 56,User,,91,4646464646
Batch 56,User,,91,4747474747
Batch 56,User,,91,4848484848
Batch 56,User,,91,4949494949
Batch 56,User,,91,5050505050
Batch 56,User,,91,5151515151
Batch56,User,,91,5252525252
Batch 57,User,,91,2020202020
Batch 57,User,,91,2121212121
Batch 57,User,,91,2323232323
Batch 57,User,,91,2424242424
Batch 57,User,,91,2525252525
Batch 57,User,,91,2626262626
Batch 57,User,,91,2727272727
Batch 57,User,,91,2828282828
Batch 57,User,,91,2929292929
Batch 57,User,,91,3030303030
Batch 57,User,,91,3131313131
Batch 57,User,,91,3232323232
Batch 57,User,,91,3434343434
Batch 57,User,,91,3535353535
Batch 57,User,,91,3636363636
Batch 57,User,,91,3737373737
Batch 57,User,,91,3838383838
Batch 57,User,,91,3939393939
Batch 57,User,,91,4040404040
Batch 57,User,,91,4141414141
Batch 57,User,,91,4242424242
Batch 57,User,,91,4343434343
Batch 57,User,,91,4545454545
Batch 57,User,,91,4646464646
Batch 57,User,,91,4747474747
Batch 57,User,,91,4848484848
Batch 57,User,,91,4949494949
Batch 57,User,,91,5050505050
Batch 57,User,,91,5151515151
Batch 57,User,,91,5252525252
Batch 58,User,,91,2020202020
Batch 58,User,,91,2121212121
Batch 58,User,,91,2323232323
Batch 58,User,,91,2424242424
Batch 58,User,,91,2525252525
Batch 58,User,,91,2626262626
Batch 58,User,,91,2727272727
Batch 58,User,,91,2828282828
Batch 58,User,,91,2929292929
Batch 58,User,,91,3030303030
Batch 58,User,,91,3131313131
Batch 58,User,,91,3232323232
Batch 58,User,,91,3434343434
Batch 58,User,,91,3535353535
Batch 58,User,,91,3636363636
Batch 58,User,,91,3737373737
Batch 58,User,,91,3838383838
Batch 58,User,,91,3939393939
Batch 58,User,,91,4040404040
Batch 58,User,,91,4141414141
Batch 58,User,,91,4242424242
Batch 58,User,,91,4343434343
Batch 58,User,,91,4545454545
Batch 58,User,,91,4646464646
Batch 58,User,,91,4747474747
Batch 58,User,,91,4848484848
Batch 58,User,,91,4949494949
Batch 58,User,,91,5050505050
Batch 58,User,,91,5151515151
Batch 58,User,,91,5252525252
